[
    "Memes",
    "Discord > Skype",
    "I'd love to make profit",
    "Features coming Soon™",
    "Python 3.x, please",
    "What are you doing in my swamp™",
    "7 GRAND DAD?!?",
    "The game who nobody asks about",
    "Nice meme'd mister.",
    "nothing",
    "with destiny",
    "with your feelings",
    "I wanna be the bot",
    "and TASing chess",
    "with humans",
    "playing... really!",
    "Imgur",
    "Reddit",
    "Sentience™",
    "Politics",
    "Expand Dong",
    "Bonzi Buddy",
    "Debugging",
    "Databases",
    "A nice guitar",
    [2, "♬ Blank Banshee - B:/ Infinite Login"],
    "with your heart",
    "PRANKS ON YOU BRO",
    "Really Makes Me Think™",
    "Black Mirror",
    "Netflix",
    "Bot Dev Tycoon",
    "Hell™",
    "Overwatch",
    "Poker with Satan",
    "Anime",
    "Matrix",
    "Communism",
    "Capitalism",
    "Philosophy with IBM Watson",
    "Skynet 2.0",
    [2, "♬ Daft Punk"],
    [3, "YouTube Red"],
    [3, "Westworld with Dolores"],
    [2, "♬ Saint Pepsi"],
    [3, "stand-up comedy"],
    "with bots, my only friends",
    [3, "NSFW Fanfics"],
    "my keyboard layout keeps changing",
    "Linux bash",
    "X11 > Wayland",
    "Apple fanboys",
    [2, "♬ Lady GaGa - Bad Romance"],
    [3, "CSI: NY"],
    [2, "♬ Michael Jackson"],
    [3, "Bazinga"],
    "Artificial Intelligence",
    "a server beep boop",
    "Club Penguin Server Administration",
    "Big Tyrone Simulator",
    [2, "♬ MACINTOSH PLUS - リサフランク420 / 現代のコンピュー"],
    [2, "♬ TANUKI - BABYBABYの夢"],
    [2, "♬ ナイトNaito - Talk About Love"],
    [2, "♬ 悲しい Android - Apartment - Your Love"],
    [2, "♬ BALENTSバランス - 植物と動物"],
    [2, "♬ Metallica - Master of Puppets"],
    [2, "♬ Information Flash - Early In The Mornin'"],
    [2, "♬ Night Tempo & ミカヅキBIGWAVE - Loveパズル"],
    [2, "♬ Compilerbau - Fragments Of Bach I"],
    [2, "♬ Burzum - Dunkelheit"],
    [2, "♬ Aphex Twin - Rhubarb"],
    [2, "♬ Lady Gaga - Love Game"],
    [2, "♬ ECCO2K - GT-R"],
    [2, "♬ Mayhem - Deathcrush"],
    [2, "♬ Vond - Selvmord"],
    [2, "♬ Venom - Buried Alive"],
    [2, "♬ Darkthrone - Transilvanian Hunger"],
    [2, "♬ Marcel Everett - The Dead Farmer"],
    [2, "♬ Marcel Everett - Stay Inside"],
    [2, "♬ We Are Number One"],

    [3, "h3h3productions"],
    [3, "science man channel 1 2 and 3"],

    "Transformers",
    "jokes HA getit?????",
    [3, "PewDiePie"],
    [3, "-1,555 subs"],
    "PREGANANACY",
    "Tinder",
    "Richard Stallman Simulator",
    "nothing",
    [2, "nothing"],
    [3, "nothing"],
    "good bye fellow ! prefix",
    "with patterns",
    "the pusi",
    "The Skynet Agenda",
    "Portal",
    "Portal 2",
    "Half-Life",
    "Super Mario",
    "Pokemon Go",
    "MMORPGs",
    "D&D",
    "GTA V",
    "Minecraft",
    "Crypt of the NecroDancer",
    "Zelda",
    "Toy Story",
    "Dungeon Souls",
    "dat ass",
    "Minecraft Shaders Mod",
    "Sampley of Guitarra",
    "Suq Madiq",
    "Mars",
    "with the microphone",
    "terminal seven",
    "Cortana",
    "Custom Prefixes",
    "Natural Language Processing",
    "nltk",
    "RSS Feeds",
    "/r/linuxmasterrace",
    "SpaceX",
    "International Space Station",
    "24 hours showing playing messages",
    "Infinite messages per minute",
    "Minecraft Let's Play",
    "Worship the gods",
    "Neural Networks",
    "Inter Bot Communication",
    "ShitPostBot 5000",
    "Pharmercy best ship",
    "Fetishism",
    "asyncio",
    "COBOL",
    "Magalzão Show",
    "Talk Show",
    "Death",
    [2, "♬ Cape Coral - Lovely Slut"],
    [2, "♬ Ｆｉ７ｉ-  Eclipse"],
    "with dead fish",
    "Virtual Reality",
    "Other Virtual Reality ( ͡° ͜ʖ ͡°)",
    "Thinking",
    "Real think hours",
    "True",
    "False",
    "Cache misses",
    "litecord",
    "WannaCry",
    "never stop dreaming",
    "Ratelimits",
    "with b1nzy",
    "with aiohttp",
    "dude fuck you",
    "HELL YEAH",
    "HELL NAH",
    "Brainfuck",
    "Motherlo... The Sims",
    [3, "with fire"],
    "XdxDXddxDDxdXDXdDXdxXDdxdXDDDXdxDXDx",
    [3, "Hackernews"],
    "I Wanna Be The Guy",
    "Weebsockets",
    "HTTP/2",
    "🅱enis",
    "🅱epis",
    "with a Cherry pie",
    [3, "the answer to life, the universe, and everything"],
    "42",
    "27",
    "rewrite is the future!",
    "async is the future!",
    "legacy is the future!",
    "JoséCoins :^)",
    "StrodlCoins :^)",
    "i'm gay",
    "stop the spam please",
    "ey b0ss",
    "with my side hoe tatsu",
    "USSR national anthem",
    "blocking is the future!",
    "honey where's my supersucc?",
    "JO-ooo-oo-oo-oo EEEEO-A-AAA-AAAA-O----------",
    "with dolls",
    "with jorge",
    [3, "Ava's Demon"],
    "with Ava",
    "Am I trans?",
    [3, "memes"],
    "DDOSing josebox",
    "die in a tornado",
    "100 warnings to luna",
    [3, "Discord"],
    "AaAaAAaAAaAAaAaaAa",
    "Hunt Down the Missing Assets",
    "please come to brazil"
]
